<?xml version="1.0" encoding="utf-8"?>
<!-- Generator: Adobe Illustrator 22.1.0, SVG Export Plug-In . SVG Version: 6.00 Build 0)  -->
<svg version="1.1" id="Layer_1" xmlns="http://www.w3.org/2000/svg" xmlns:xlink="http://www.w3.org/1999/xlink" x="0px" y="0px"
	 viewBox="0 0 63.6 60.8" style="enable-background:new 0 0 63.6 60.8;" xml:space="preserve">
<style type="text/css">
	.st0{fill:#378BCA;}
</style>
<title>Asset 22</title>
<g id="Layer_2_1_">
	<g id="Layer_1-2">
		<circle class="st0" cx="8.3" cy="16.6" r="5.5"/>
		<path class="st0" d="M2.8,60.8h5.5V44.2h2.8v16.6h5.5V30.4h13.8v-5.5H5.5c-3.1,0-5.5,2.5-5.5,5.5v13.8h2.8V60.8z"/>
		<polygon class="st0" points="36,8.3 36,26.1 44.9,35.2 48.9,31.4 41.5,23.9 41.5,8.3 		"/>
		<path class="st0" d="M21.1,7.3l-4.5-4.5v13.9l13.8-0.1L25,11.2c7.6-7.5,19.8-7.5,27.4,0.1c7.1,7.2,7.5,18.6,0.9,26.2
			c-7,8.1-19.2,9-27.3,2c0,0,0,0,0,0l-3.6,4.1c4.5,3.9,10.3,6.1,16.3,6.1c0.6,0,1.2,0,1.8-0.1c13.7-1,24-12.9,23-26.6
			c-0.5-6.6-3.5-12.7-8.5-17C45.1-2.5,30.3-1.9,21.1,7.3z"/>
	</g>
</g>
</svg>
